#Command: "C:\Program Files (x86)\Microsoft Visual Studio\2019\Community\VC\Tools\MSVC\14.24.28314\bin\HostX86\x64\link.exe" /ERRORREPORT:PROMPT @C:\Users\mans.zivkovicanders\AppData\Local\Temp\tmp52a230f4c24745e3883768a2af38d7f8.rsp
^C:\USERS\MANS.ZIVKOVICANDERS\DESKTOP\FPS\GAMLABETTAN\WORKBED\LAUNCHER\LAUNCHER.OBJ|C:\USERS\MANS.ZIVKOVICANDERS\DESKTOP\FPS\GAMLABETTAN\WORKBED\LAUNCHER\LAUNCHER.RES|C:\USERS\MANS.ZIVKOVICANDERS\DESKTOP\FPS\GAMLABETTAN\WORKBED\LAUNCHER\RUN.OBJ
C:\USERS\MANS.ZIVKOVICANDERS\DESKTOP\FPS\GAME\LAUNCHER_RELEASE.PDB
#Command: "C:\Program Files (x86)\Microsoft Visual Studio\2019\Community\VC\Tools\MSVC\14.24.28314\bin\HostX86\x64\link.exe" /ERRORREPORT:PROMPT @C:\Users\mans.zivkovicanders\AppData\Local\Temp\tmp0e1d2de9b89840b18cc0026ec1ea7ad8.rsp
^C:\USERS\MANS.ZIVKOVICANDERS\DESKTOP\FPS\GAMLABETTAN\WORKBED\LAUNCHER\LAUNCHER.OBJ|C:\USERS\MANS.ZIVKOVICANDERS\DESKTOP\FPS\GAMLABETTAN\WORKBED\LAUNCHER\LAUNCHER.RES|C:\USERS\MANS.ZIVKOVICANDERS\DESKTOP\FPS\GAMLABETTAN\WORKBED\LAUNCHER\RUN.OBJ
C:\USERS\MANS.ZIVKOVICANDERS\DESKTOP\FPS\GAME\LAUNCHER_RELEASE.PDB
#Command: "C:\Program Files (x86)\Microsoft Visual Studio\2019\Community\VC\Tools\MSVC\14.24.28314\bin\HostX86\x64\link.exe" /ERRORREPORT:PROMPT @C:\Users\mans.zivkovicanders\AppData\Local\Temp\tmp5379a189e9054cbb86e2c61179fd05eb.rsp
^C:\USERS\MANS.ZIVKOVICANDERS\DESKTOP\FPS\GAMLABETTAN\WORKBED\LAUNCHER\LAUNCHER.OBJ|C:\USERS\MANS.ZIVKOVICANDERS\DESKTOP\FPS\GAMLABETTAN\WORKBED\LAUNCHER\LAUNCHER.RES|C:\USERS\MANS.ZIVKOVICANDERS\DESKTOP\FPS\GAMLABETTAN\WORKBED\LAUNCHER\RUN.OBJ
C:\USERS\MANS.ZIVKOVICANDERS\DESKTOP\FPS\GAME\LAUNCHER_RELEASE.PDB
#Command: "C:\Program Files (x86)\Microsoft Visual Studio\2019\Community\VC\Tools\MSVC\14.24.28314\bin\HostX86\x64\link.exe" /ERRORREPORT:PROMPT @C:\Users\mans.zivkovicanders\AppData\Local\Temp\tmpd47932f1499f4f6cadf4aa34885ced05.rsp
^C:\USERS\MANS.ZIVKOVICANDERS\DESKTOP\FPS\GAMLABETTAN\WORKBED\LAUNCHER\LAUNCHER.OBJ|C:\USERS\MANS.ZIVKOVICANDERS\DESKTOP\FPS\GAMLABETTAN\WORKBED\LAUNCHER\LAUNCHER.RES|C:\USERS\MANS.ZIVKOVICANDERS\DESKTOP\FPS\GAMLABETTAN\WORKBED\LAUNCHER\RUN.OBJ
C:\USERS\MANS.ZIVKOVICANDERS\DESKTOP\FPS\GAME\LAUNCHER_RELEASE.PDB
#Command: "C:\Program Files (x86)\Microsoft Visual Studio\2019\Community\VC\Tools\MSVC\14.24.28314\bin\HostX86\x64\link.exe" /ERRORREPORT:PROMPT @C:\Users\mans.zivkovicanders\AppData\Local\Temp\tmp1cfb324e7f164ab098169abcf20fbd03.rsp
^C:\USERS\MANS.ZIVKOVICANDERS\DESKTOP\FPS\GAMLABETTAN\WORKBED\LAUNCHER\LAUNCHER.OBJ|C:\USERS\MANS.ZIVKOVICANDERS\DESKTOP\FPS\GAMLABETTAN\WORKBED\LAUNCHER\LAUNCHER.RES|C:\USERS\MANS.ZIVKOVICANDERS\DESKTOP\FPS\GAMLABETTAN\WORKBED\LAUNCHER\RUN.OBJ
C:\USERS\MANS.ZIVKOVICANDERS\DESKTOP\FPS\GAME\LAUNCHER_RELEASE.PDB
#Command: "C:\Program Files (x86)\Microsoft Visual Studio\2019\Community\VC\Tools\MSVC\14.24.28314\bin\HostX86\x64\link.exe" /ERRORREPORT:PROMPT @C:\Users\mans.zivkovicanders\AppData\Local\Temp\tmp5526463ca17645058b70b6196dad7424.rsp
^C:\USERS\MANS.ZIVKOVICANDERS\DESKTOP\FPS\GAMLABETTAN\WORKBED\LAUNCHER\LAUNCHER.OBJ|C:\USERS\MANS.ZIVKOVICANDERS\DESKTOP\FPS\GAMLABETTAN\WORKBED\LAUNCHER\LAUNCHER.RES|C:\USERS\MANS.ZIVKOVICANDERS\DESKTOP\FPS\GAMLABETTAN\WORKBED\LAUNCHER\RUN.OBJ
C:\USERS\MANS.ZIVKOVICANDERS\DESKTOP\FPS\GAME\LAUNCHER_RELEASE.PDB
#Command: "C:\Program Files (x86)\Microsoft Visual Studio\2019\Community\VC\Tools\MSVC\14.24.28314\bin\HostX86\x64\link.exe" /ERRORREPORT:PROMPT @C:\Users\mans.zivkovicanders\AppData\Local\Temp\tmpdaff27203a4e4cc49c185f41d2fb5a43.rsp
^C:\USERS\MANS.ZIVKOVICANDERS\DESKTOP\FPS\GAMLABETTAN\WORKBED\LAUNCHER\LAUNCHER.OBJ|C:\USERS\MANS.ZIVKOVICANDERS\DESKTOP\FPS\GAMLABETTAN\WORKBED\LAUNCHER\LAUNCHER.RES|C:\USERS\MANS.ZIVKOVICANDERS\DESKTOP\FPS\GAMLABETTAN\WORKBED\LAUNCHER\RUN.OBJ
C:\USERS\MANS.ZIVKOVICANDERS\DESKTOP\FPS\GAME\LAUNCHER_RELEASE.PDB
#Command: "C:\Program Files (x86)\Microsoft Visual Studio\2019\Community\VC\Tools\MSVC\14.24.28314\bin\HostX86\x64\link.exe" /ERRORREPORT:PROMPT @C:\Users\mans.zivkovicanders\AppData\Local\Temp\tmp9f3e7abb0ff54ec393a24f62d15ed645.rsp
^C:\USERS\MANS.ZIVKOVICANDERS\DESKTOP\FPS\GAMLABETTAN\WORKBED\LAUNCHER\LAUNCHER.OBJ|C:\USERS\MANS.ZIVKOVICANDERS\DESKTOP\FPS\GAMLABETTAN\WORKBED\LAUNCHER\LAUNCHER.RES|C:\USERS\MANS.ZIVKOVICANDERS\DESKTOP\FPS\GAMLABETTAN\WORKBED\LAUNCHER\RUN.OBJ
C:\USERS\MANS.ZIVKOVICANDERS\DESKTOP\FPS\GAME\LAUNCHER_RELEASE.PDB
#Command: "C:\Program Files (x86)\Microsoft Visual Studio\2019\Community\VC\Tools\MSVC\14.24.28314\bin\HostX86\x64\link.exe" /ERRORREPORT:PROMPT @C:\Users\mans.zivkovicanders\AppData\Local\Temp\tmp275980957cae43578cc031c32c7d9420.rsp
^C:\USERS\MANS.ZIVKOVICANDERS\DESKTOP\FPS\GAMLABETTAN\WORKBED\LAUNCHER\LAUNCHER.OBJ|C:\USERS\MANS.ZIVKOVICANDERS\DESKTOP\FPS\GAMLABETTAN\WORKBED\LAUNCHER\LAUNCHER.RES|C:\USERS\MANS.ZIVKOVICANDERS\DESKTOP\FPS\GAMLABETTAN\WORKBED\LAUNCHER\RUN.OBJ
C:\USERS\MANS.ZIVKOVICANDERS\DESKTOP\FPS\GAME\LAUNCHER_RELEASE.PDB
#Command: "C:\Program Files (x86)\Microsoft Visual Studio\2019\Community\VC\Tools\MSVC\14.24.28314\bin\HostX86\x64\link.exe" /ERRORREPORT:PROMPT @C:\Users\mans.zivkovicanders\AppData\Local\Temp\tmpe542fcec62c14d5eac1d0af6fbfddeb4.rsp
^C:\USERS\MANS.ZIVKOVICANDERS\DESKTOP\FPS\GAMLABETTAN\WORKBED\LAUNCHER\LAUNCHER.OBJ|C:\USERS\MANS.ZIVKOVICANDERS\DESKTOP\FPS\GAMLABETTAN\WORKBED\LAUNCHER\LAUNCHER.RES|C:\USERS\MANS.ZIVKOVICANDERS\DESKTOP\FPS\GAMLABETTAN\WORKBED\LAUNCHER\RUN.OBJ
C:\USERS\MANS.ZIVKOVICANDERS\DESKTOP\FPS\GAME\LAUNCHER_RELEASE.PDB
#Command: "C:\Program Files (x86)\Microsoft Visual Studio\2019\Community\VC\Tools\MSVC\14.24.28314\bin\HostX86\x64\link.exe" /ERRORREPORT:PROMPT @C:\Users\mans.zivkovicanders\AppData\Local\Temp\tmpe18a463d286e4d1981980ceba68415b0.rsp
^C:\USERS\MANS.ZIVKOVICANDERS\DESKTOP\FPS\GAMLABETTAN\WORKBED\LAUNCHER\LAUNCHER.OBJ|C:\USERS\MANS.ZIVKOVICANDERS\DESKTOP\FPS\GAMLABETTAN\WORKBED\LAUNCHER\LAUNCHER.RES|C:\USERS\MANS.ZIVKOVICANDERS\DESKTOP\FPS\GAMLABETTAN\WORKBED\LAUNCHER\RUN.OBJ
C:\USERS\MANS.ZIVKOVICANDERS\DESKTOP\FPS\GAME\LAUNCHER_RELEASE.PDB
#Command: "C:\Program Files (x86)\Microsoft Visual Studio\2019\Community\VC\Tools\MSVC\14.24.28314\bin\HostX86\x64\link.exe" /ERRORREPORT:PROMPT @C:\Users\mans.zivkovicanders\AppData\Local\Temp\tmp9ebe7b9b59d24c8da8b981f8fd4210bd.rsp
^C:\USERS\MANS.ZIVKOVICANDERS\DESKTOP\FPS\GAMLABETTAN\WORKBED\LAUNCHER\LAUNCHER.OBJ|C:\USERS\MANS.ZIVKOVICANDERS\DESKTOP\FPS\GAMLABETTAN\WORKBED\LAUNCHER\LAUNCHER.RES|C:\USERS\MANS.ZIVKOVICANDERS\DESKTOP\FPS\GAMLABETTAN\WORKBED\LAUNCHER\RUN.OBJ
C:\USERS\MANS.ZIVKOVICANDERS\DESKTOP\FPS\GAME\LAUNCHER_RELEASE.PDB
#Command: "C:\Program Files (x86)\Microsoft Visual Studio\2019\Community\VC\Tools\MSVC\14.24.28314\bin\HostX86\x64\link.exe" /ERRORREPORT:PROMPT @C:\Users\mans.zivkovicanders\AppData\Local\Temp\tmpdc985b4463534305b4851c4676683f65.rsp
^C:\USERS\MANS.ZIVKOVICANDERS\DESKTOP\FPS\GAMLABETTAN\WORKBED\LAUNCHER\LAUNCHER.OBJ|C:\USERS\MANS.ZIVKOVICANDERS\DESKTOP\FPS\GAMLABETTAN\WORKBED\LAUNCHER\LAUNCHER.RES|C:\USERS\MANS.ZIVKOVICANDERS\DESKTOP\FPS\GAMLABETTAN\WORKBED\LAUNCHER\RUN.OBJ
C:\USERS\MANS.ZIVKOVICANDERS\DESKTOP\FPS\GAME\LAUNCHER_RELEASE.PDB
#Command: "C:\Program Files (x86)\Microsoft Visual Studio\2019\Community\VC\Tools\MSVC\14.24.28314\bin\HostX86\x64\link.exe" /ERRORREPORT:PROMPT @C:\Users\mans.zivkovicanders\AppData\Local\Temp\tmp1934046fb60e4c068c293bd2125a5c68.rsp
^C:\USERS\MANS.ZIVKOVICANDERS\DESKTOP\FPS\GAMLABETTAN\WORKBED\LAUNCHER\LAUNCHER.OBJ|C:\USERS\MANS.ZIVKOVICANDERS\DESKTOP\FPS\GAMLABETTAN\WORKBED\LAUNCHER\LAUNCHER.RES|C:\USERS\MANS.ZIVKOVICANDERS\DESKTOP\FPS\GAMLABETTAN\WORKBED\LAUNCHER\RUN.OBJ
C:\USERS\MANS.ZIVKOVICANDERS\DESKTOP\FPS\GAME\LAUNCHER_RELEASE.PDB
