^C:\USERS\MANS.ZIVKOVICANDERS\DESKTOP\FPS\GAMLABETTAN\WORKBED\AUDIO\AUDIOENGINE.OBJ|C:\USERS\MANS.ZIVKOVICANDERS\DESKTOP\FPS\GAMLABETTAN\WORKBED\AUDIO\AUDIOINSTANCE.OBJ|C:\USERS\MANS.ZIVKOVICANDERS\DESKTOP\FPS\GAMLABETTAN\WORKBED\AUDIO\AUDIOMANAGER.OBJ
C:\USERS\MANS.ZIVKOVICANDERS\DESKTOP\FPS\GAMLABETTAN\WORKBED\AUDIO\AUDIOENGINE.OBJ
C:\WINDOWS\SYSTEM32\TZRES.DLL
C:\USERS\MANS.ZIVKOVICANDERS\DESKTOP\FPS\GAMLABETTAN\WORKBED\AUDIO\AUDIOINSTANCE.OBJ
C:\USERS\MANS.ZIVKOVICANDERS\DESKTOP\FPS\GAMLABETTAN\WORKBED\AUDIO\AUDIOMANAGER.OBJ
C:\WINDOWS\GLOBALIZATION\SORTING\SORTDEFAULT.NLS
