^C:\USERS\MANS.ZIVKOVICANDERS\DESKTOP\FPS\GAMLABETTAN\IMGUI\IMGUI_NE\THIRDPARTY\IMGUI\IMGUI.CPP|C:\USERS\MANS.ZIVKOVICANDERS\DESKTOP\FPS\GAMLABETTAN\IMGUI\IMGUI_NE\THIRDPARTY\IMGUI\IMGUI_DEMO.CPP|C:\USERS\MANS.ZIVKOVICANDERS\DESKTOP\FPS\GAMLABETTAN\IMGUI\IMGUI_NE\THIRDPARTY\IMGUI\IMGUI_DRAW.CPP|C:\USERS\MANS.ZIVKOVICANDERS\DESKTOP\FPS\GAMLABETTAN\IMGUI\IMGUI_NE\THIRDPARTY\IMGUI\IMGUI_IMPL_DX11.CPP|C:\USERS\MANS.ZIVKOVICANDERS\DESKTOP\FPS\GAMLABETTAN\IMGUI\IMGUI_NE\THIRDPARTY\IMGUI\IMGUI_IMPL_WIN32.CPP|C:\USERS\MANS.ZIVKOVICANDERS\DESKTOP\FPS\GAMLABETTAN\IMGUI\IMGUI_NE\THIRDPARTY\IMGUI\IMGUI_WIDGETS.CPP
C:\USERS\MANS.ZIVKOVICANDERS\DESKTOP\FPS\GAMLABETTAN\WORKBED\IMGUI\IMGUI_WIDGETS.OBJ
C:\USERS\MANS.ZIVKOVICANDERS\DESKTOP\FPS\GAMLABETTAN\WORKBED\IMGUI\IMGUI_IMPL_WIN32.OBJ
C:\USERS\MANS.ZIVKOVICANDERS\DESKTOP\FPS\GAMLABETTAN\WORKBED\IMGUI\IMGUI_IMPL_DX11.OBJ
C:\USERS\MANS.ZIVKOVICANDERS\DESKTOP\FPS\GAMLABETTAN\WORKBED\IMGUI\IMGUI_DRAW.OBJ
C:\USERS\MANS.ZIVKOVICANDERS\DESKTOP\FPS\GAMLABETTAN\WORKBED\IMGUI\IMGUI_DEMO.OBJ
C:\USERS\MANS.ZIVKOVICANDERS\DESKTOP\FPS\GAMLABETTAN\WORKBED\IMGUI\IMGUI.OBJ
^C:\USERS\MANS.ZIVKOVICANDERS\DESKTOP\FPS\GAMLABETTAN\IMGUI\IMGUI_NE\THIRDPARTY\IMGUI\IMGUI.CPP
C:\USERS\MANS.ZIVKOVICANDERS\DESKTOP\FPS\GAMLABETTAN\PCH\VC142.PDB
^C:\USERS\MANS.ZIVKOVICANDERS\DESKTOP\FPS\GAMLABETTAN\IMGUI\IMGUI_NE\THIRDPARTY\IMGUI\IMGUI_DEMO.CPP
C:\USERS\MANS.ZIVKOVICANDERS\DESKTOP\FPS\GAMLABETTAN\PCH\VC142.PDB
^C:\USERS\MANS.ZIVKOVICANDERS\DESKTOP\FPS\GAMLABETTAN\IMGUI\IMGUI_NE\THIRDPARTY\IMGUI\IMGUI_DRAW.CPP
C:\USERS\MANS.ZIVKOVICANDERS\DESKTOP\FPS\GAMLABETTAN\PCH\VC142.PDB
^C:\USERS\MANS.ZIVKOVICANDERS\DESKTOP\FPS\GAMLABETTAN\IMGUI\IMGUI_NE\THIRDPARTY\IMGUI\IMGUI_IMPL_DX11.CPP
C:\USERS\MANS.ZIVKOVICANDERS\DESKTOP\FPS\GAMLABETTAN\PCH\VC142.PDB
^C:\USERS\MANS.ZIVKOVICANDERS\DESKTOP\FPS\GAMLABETTAN\IMGUI\IMGUI_NE\THIRDPARTY\IMGUI\IMGUI_IMPL_WIN32.CPP
C:\USERS\MANS.ZIVKOVICANDERS\DESKTOP\FPS\GAMLABETTAN\PCH\VC142.PDB
^C:\USERS\MANS.ZIVKOVICANDERS\DESKTOP\FPS\GAMLABETTAN\IMGUI\IMGUI_NE\THIRDPARTY\IMGUI\IMGUI_WIDGETS.CPP
C:\USERS\MANS.ZIVKOVICANDERS\DESKTOP\FPS\GAMLABETTAN\PCH\VC142.PDB
