^C:\USERS\MANS.ZIVKOVICANDERS\DESKTOP\FPS\GAMLABETTAN\GAME\GAME.CPP|C:\USERS\MANS.ZIVKOVICANDERS\DESKTOP\FPS\GAMLABETTAN\GAME\GAMESTATE.CPP|C:\USERS\MANS.ZIVKOVICANDERS\DESKTOP\FPS\GAMLABETTAN\GAME\GAMEWORLD.CPP|C:\USERS\MANS.ZIVKOVICANDERS\DESKTOP\FPS\GAMLABETTAN\GAME\LEVELSELECTSTATE.CPP|C:\USERS\MANS.ZIVKOVICANDERS\DESKTOP\FPS\GAMLABETTAN\GAME\MAINMENUSTATE.CPP
C:\USERS\MANS.ZIVKOVICANDERS\DESKTOP\FPS\GAMLABETTAN\WORKBED\GAME\MAINMENUSTATE.OBJ
C:\USERS\MANS.ZIVKOVICANDERS\DESKTOP\FPS\GAMLABETTAN\WORKBED\GAME\LEVELSELECTSTATE.OBJ
C:\USERS\MANS.ZIVKOVICANDERS\DESKTOP\FPS\GAMLABETTAN\WORKBED\GAME\GAMEWORLD.OBJ
C:\USERS\MANS.ZIVKOVICANDERS\DESKTOP\FPS\GAMLABETTAN\WORKBED\GAME\GAMESTATE.OBJ
C:\USERS\MANS.ZIVKOVICANDERS\DESKTOP\FPS\GAMLABETTAN\WORKBED\GAME\GAME.OBJ
^C:\USERS\MANS.ZIVKOVICANDERS\DESKTOP\FPS\GAMLABETTAN\GAME\GAMEWORLD.CPP|C:\USERS\MANS.ZIVKOVICANDERS\DESKTOP\FPS\GAMLABETTAN\GAME\STATICOBJECTFACTORY.CPP
C:\USERS\MANS.ZIVKOVICANDERS\DESKTOP\FPS\GAMLABETTAN\WORKBED\GAME\STATICOBJECTFACTORY.OBJ
C:\USERS\MANS.ZIVKOVICANDERS\DESKTOP\FPS\GAMLABETTAN\WORKBED\GAME\GAMEWORLD.OBJ
^C:\USERS\MANS.ZIVKOVICANDERS\DESKTOP\FPS\GAMLABETTAN\GAME\GAME.CPP|C:\USERS\MANS.ZIVKOVICANDERS\DESKTOP\FPS\GAMLABETTAN\GAME\GAMESTATE.CPP|C:\USERS\MANS.ZIVKOVICANDERS\DESKTOP\FPS\GAMLABETTAN\GAME\LEVELSELECTSTATE.CPP|C:\USERS\MANS.ZIVKOVICANDERS\DESKTOP\FPS\GAMLABETTAN\GAME\MAINMENUSTATE.CPP
C:\USERS\MANS.ZIVKOVICANDERS\DESKTOP\FPS\GAMLABETTAN\WORKBED\GAME\MAINMENUSTATE.OBJ
C:\USERS\MANS.ZIVKOVICANDERS\DESKTOP\FPS\GAMLABETTAN\WORKBED\GAME\LEVELSELECTSTATE.OBJ
C:\USERS\MANS.ZIVKOVICANDERS\DESKTOP\FPS\GAMLABETTAN\WORKBED\GAME\GAMESTATE.OBJ
C:\USERS\MANS.ZIVKOVICANDERS\DESKTOP\FPS\GAMLABETTAN\WORKBED\GAME\GAME.OBJ
^C:\USERS\MANS.ZIVKOVICANDERS\DESKTOP\FPS\GAMLABETTAN\GAME\ABILITYDATA.CPP|C:\USERS\MANS.ZIVKOVICANDERS\DESKTOP\FPS\GAMLABETTAN\GAME\ABILITYFACTORY.CPP|C:\USERS\MANS.ZIVKOVICANDERS\DESKTOP\FPS\GAMLABETTAN\GAME\ABILITYINSTANCE.CPP|C:\USERS\MANS.ZIVKOVICANDERS\DESKTOP\FPS\GAMLABETTAN\GAME\AIBASESTATE.CPP|C:\USERS\MANS.ZIVKOVICANDERS\DESKTOP\FPS\GAMLABETTAN\GAME\AICONTROLLER.CPP|C:\USERS\MANS.ZIVKOVICANDERS\DESKTOP\FPS\GAMLABETTAN\GAME\AIPOLLINGSTATION.CPP|C:\USERS\MANS.ZIVKOVICANDERS\DESKTOP\FPS\GAMLABETTAN\GAME\ALERTEDSTATE.CPP|C:\USERS\MANS.ZIVKOVICANDERS\DESKTOP\FPS\GAMLABETTAN\GAME\ANIMATIONCOMPONENT.CPP|C:\USERS\MANS.ZIVKOVICANDERS\DESKTOP\FPS\GAMLABETTAN\GAME\ATTACKSTATE.CPP|C:\USERS\MANS.ZIVKOVICANDERS\DESKTOP\FPS\GAMLABETTAN\GAME\AUDIO.CPP|C:\USERS\MANS.ZIVKOVICANDERS\DESKTOP\FPS\GAMLABETTAN\GAME\CAMERALOOKAT.CPP|C:\USERS\MANS.ZIVKOVICANDERS\DESKTOP\FPS\GAMLABETTAN\GAME\CHARACTERDATA.CPP|C:\USERS\MANS.ZIVKOVICANDERS\DESKTOP\FPS\GAMLABETTAN\GAME\CHARACTERINSTANCE.CPP|C:\USERS\MANS.ZIVKOVICANDERS\DESKTOP\FPS\GAMLABETTAN\GAME\CINEMATICEDITOR.CPP|C:\USERS\MANS.ZIVKOVICANDERS\DESKTOP\FPS\GAMLABETTAN\GAME\CINEMATICSTATE.CPP|C:\USERS\MANS.ZIVKOVICANDERS\DESKTOP\FPS\GAMLABETTAN\GAME\COLLISION.CPP|C:\USERS\MANS.ZIVKOVICANDERS\DESKTOP\FPS\GAMLABETTAN\GAME\COMPONENT.CPP|C:\USERS\MANS.ZIVKOVICANDERS\DESKTOP\FPS\GAMLABETTAN\GAME\COMPONENTLAKE.CPP|C:\USERS\MANS.ZIVKOVICANDERS\DESKTOP\FPS\GAMLABETTAN\GAME\DESTRUCTIBLEFACTORY.CPP|C:\USERS\MANS.ZIVKOVICANDERS\DESKTOP\FPS\GAMLABETTAN\GAME\ENEMYFACTORY.CPP|C:\USERS\MANS.ZIVKOVICANDERS\DESKTOP\FPS\GAMLABETTAN\GAME\ENTITY.CPP|C:\USERS\MANS.ZIVKOVICANDERS\DESKTOP\FPS\GAMLABETTAN\GAME\FIREWEAPON.CPP|C:\USERS\MANS.ZIVKOVICANDERS\DESKTOP\FPS\GAMLABETTAN\GAME\FOLLOWCAMERA.CPP|C:\USERS\MANS.ZIVKOVICANDERS\DESKTOP\FPS\GAMLABETTAN\GAME\FPSCAMERA.CPP|C:\USERS\MANS.ZIVKOVICANDERS\DESKTOP\FPS\GAMLABETTAN\GAME\GAME.CPP|C:\USERS\MANS.ZIVKOVICANDERS\DESKTOP\FPS\GAMLABETTAN\GAME\GAMESTATE.CPP|C:\USERS\MANS.ZIVKOVICANDERS\DESKTOP\FPS\GAMLABETTAN\GAME\GAMEWORLD.CPP|C:\USERS\MANS.ZIVKOVICANDERS\DESKTOP\FPS\GAMLABETTAN\GAME\GBPHYSXCOLLIDERFACTORY.CPP|C:\USERS\MANS.ZIVKOVICANDERS\DESKTOP\FPS\GAMLABETTAN\GAME\GBPHYSXCOMPONENT.CPP|C:\USERS\MANS.ZIVKOVICANDERS\DESKTOP\FPS\GAMLABETTAN\GAME\GBPHYSXKINEMATICCOMPONENT.CPP|C:\USERS\MANS.ZIVKOVICANDERS\DESKTOP\FPS\GAMLABETTAN\GAME\GBPHYSXSTATICCOMPONENT.CPP|C:\USERS\MANS.ZIVKOVICANDERS\DESKTOP\FPS\GAMLABETTAN\GAME\GRAPHICS.CPP|C:\USERS\MANS.ZIVKOVICANDERS\DESKTOP\FPS\GAMLABETTAN\GAME\HOMING3D.CPP|C:\USERS\MANS.ZIVKOVICANDERS\DESKTOP\FPS\GAMLABETTAN\GAME\IDLESTATE.CPP|C:\USERS\MANS.ZIVKOVICANDERS\DESKTOP\FPS\GAMLABETTAN\GAME\LEVELSELECTSTATE.CPP|C:\USERS\MANS.ZIVKOVICANDERS\DESKTOP\FPS\GAMLABETTAN\GAME\LIFE.CPP|C:\USERS\MANS.ZIVKOVICANDERS\DESKTOP\FPS\GAMLABETTAN\GAME\LIFETIME.CPP|C:\USERS\MANS.ZIVKOVICANDERS\DESKTOP\FPS\GAMLABETTAN\GAME\LIGHT.CPP|C:\USERS\MANS.ZIVKOVICANDERS\DESKTOP\FPS\GAMLABETTAN\GAME\MAINMENUSTATE.CPP|C:\USERS\MANS.ZIVKOVICANDERS\DESKTOP\FPS\GAMLABETTAN\GAME\MESH.CPP|C:\USERS\MANS.ZIVKOVICANDERS\DESKTOP\FPS\GAMLABETTAN\GAME\MOVEMENT3D.CPP|C:\USERS\MANS.ZIVKOVICANDERS\DESKTOP\FPS\GAMLABETTAN\GAME\OPTIONSTATE.CPP|C:\USERS\MANS.ZIVKOVICANDERS\DESKTOP\FPS\GAMLABETTAN\GAME\PARTICLEACTIVATABLE.CPP|C:\USERS\MANS.ZIVKOVICANDERS\DESKTOP\FPS\GAMLABETTAN\GAME\PARTICLEONDEATH.CPP|C:\USERS\MANS.ZIVKOVICANDERS\DESKTOP\FPS\GAMLABETTAN\GAME\PARTICLEONHIT.CPP|C:\USERS\MANS.ZIVKOVICANDERS\DESKTOP\FPS\GAMLABETTAN\GAME\PARTICLESWHILEALIVE.CPP|C:\USERS\MANS.ZIVKOVICANDERS\DESKTOP\FPS\GAMLABETTAN\GAME\PAUSESTATE.CPP|C:\USERS\MANS.ZIVKOVICANDERS\DESKTOP\FPS\GAMLABETTAN\GAME\PERLIN_NOISE.CPP|C:\USERS\MANS.ZIVKOVICANDERS\DESKTOP\FPS\GAMLABETTAN\GAME\PLAYERCONTROLLER.CPP|C:\USERS\MANS.ZIVKOVICANDERS\DESKTOP\FPS\GAMLABETTAN\GAME\POINTLIGHTFACTORY.CPP|C:\USERS\MANS.ZIVKOVICANDERS\DESKTOP\FPS\GAMLABETTAN\GAME\PROGRESSBAR.CPP|C:\USERS\MANS.ZIVKOVICANDERS\DESKTOP\FPS\GAMLABETTAN\GAME\SEEKTARGETSTATE.CPP|C:\USERS\MANS.ZIVKOVICANDERS\DESKTOP\FPS\GAMLABETTAN\GAME\STATICOBJECTFACTORY.CPP|C:\USERS\MANS.ZIVKOVICANDERS\DESKTOP\FPS\GAMLABETTAN\GAME\TRIGGERBOXFACTORY.CPP|C:\USERS\MANS.ZIVKOVICANDERS\DESKTOP\FPS\GAMLABETTAN\GAME\UIMANAGER.CPP|C:\USERS\MANS.ZIVKOVICANDERS\DESKTOP\FPS\GAMLABETTAN\GAME\VIDEOSTATE.CPP
C:\USERS\MANS.ZIVKOVICANDERS\DESKTOP\FPS\GAMLABETTAN\WORKBED\GAME\ENEMYFACTORY.OBJ
C:\USERS\MANS.ZIVKOVICANDERS\DESKTOP\FPS\GAMLABETTAN\WORKBED\GAME\DESTRUCTIBLEFACTORY.OBJ
C:\USERS\MANS.ZIVKOVICANDERS\DESKTOP\FPS\GAMLABETTAN\WORKBED\GAME\COMPONENTLAKE.OBJ
C:\USERS\MANS.ZIVKOVICANDERS\DESKTOP\FPS\GAMLABETTAN\WORKBED\GAME\COMPONENT.OBJ
C:\USERS\MANS.ZIVKOVICANDERS\DESKTOP\FPS\GAMLABETTAN\WORKBED\GAME\COLLISION.OBJ
C:\USERS\MANS.ZIVKOVICANDERS\DESKTOP\FPS\GAMLABETTAN\WORKBED\GAME\CINEMATICSTATE.OBJ
C:\USERS\MANS.ZIVKOVICANDERS\DESKTOP\FPS\GAMLABETTAN\WORKBED\GAME\CINEMATICEDITOR.OBJ
C:\USERS\MANS.ZIVKOVICANDERS\DESKTOP\FPS\GAMLABETTAN\WORKBED\GAME\CHARACTERINSTANCE.OBJ
C:\USERS\MANS.ZIVKOVICANDERS\DESKTOP\FPS\GAMLABETTAN\WORKBED\GAME\CHARACTERDATA.OBJ
C:\USERS\MANS.ZIVKOVICANDERS\DESKTOP\FPS\GAMLABETTAN\WORKBED\GAME\CAMERALOOKAT.OBJ
C:\USERS\MANS.ZIVKOVICANDERS\DESKTOP\FPS\GAMLABETTAN\WORKBED\GAME\AUDIO.OBJ
C:\USERS\MANS.ZIVKOVICANDERS\DESKTOP\FPS\GAMLABETTAN\WORKBED\GAME\ATTACKSTATE.OBJ
C:\USERS\MANS.ZIVKOVICANDERS\DESKTOP\FPS\GAMLABETTAN\WORKBED\GAME\ANIMATIONCOMPONENT.OBJ
C:\USERS\MANS.ZIVKOVICANDERS\DESKTOP\FPS\GAMLABETTAN\WORKBED\GAME\ALERTEDSTATE.OBJ
C:\USERS\MANS.ZIVKOVICANDERS\DESKTOP\FPS\GAMLABETTAN\WORKBED\GAME\ABILITYINSTANCE.OBJ
C:\USERS\MANS.ZIVKOVICANDERS\DESKTOP\FPS\GAMLABETTAN\WORKBED\GAME\ABILITYFACTORY.OBJ
C:\USERS\MANS.ZIVKOVICANDERS\DESKTOP\FPS\GAMLABETTAN\WORKBED\GAME\ABILITYDATA.OBJ
C:\USERS\MANS.ZIVKOVICANDERS\DESKTOP\FPS\GAMLABETTAN\WORKBED\GAME\AIPOLLINGSTATION.OBJ
C:\USERS\MANS.ZIVKOVICANDERS\DESKTOP\FPS\GAMLABETTAN\WORKBED\GAME\AICONTROLLER.OBJ
C:\USERS\MANS.ZIVKOVICANDERS\DESKTOP\FPS\GAMLABETTAN\WORKBED\GAME\AIBASESTATE.OBJ
C:\USERS\MANS.ZIVKOVICANDERS\DESKTOP\FPS\GAMLABETTAN\WORKBED\GAME\MESH.OBJ
C:\USERS\MANS.ZIVKOVICANDERS\DESKTOP\FPS\GAMLABETTAN\WORKBED\GAME\MAINMENUSTATE.OBJ
C:\USERS\MANS.ZIVKOVICANDERS\DESKTOP\FPS\GAMLABETTAN\WORKBED\GAME\LIGHT.OBJ
C:\USERS\MANS.ZIVKOVICANDERS\DESKTOP\FPS\GAMLABETTAN\WORKBED\GAME\LIFETIME.OBJ
C:\USERS\MANS.ZIVKOVICANDERS\DESKTOP\FPS\GAMLABETTAN\WORKBED\GAME\LIFE.OBJ
C:\USERS\MANS.ZIVKOVICANDERS\DESKTOP\FPS\GAMLABETTAN\WORKBED\GAME\LEVELSELECTSTATE.OBJ
C:\USERS\MANS.ZIVKOVICANDERS\DESKTOP\FPS\GAMLABETTAN\WORKBED\GAME\IDLESTATE.OBJ
C:\USERS\MANS.ZIVKOVICANDERS\DESKTOP\FPS\GAMLABETTAN\WORKBED\GAME\HOMING3D.OBJ
C:\USERS\MANS.ZIVKOVICANDERS\DESKTOP\FPS\GAMLABETTAN\WORKBED\GAME\GRAPHICS.OBJ
C:\USERS\MANS.ZIVKOVICANDERS\DESKTOP\FPS\GAMLABETTAN\WORKBED\GAME\GAMEWORLD.OBJ
C:\USERS\MANS.ZIVKOVICANDERS\DESKTOP\FPS\GAMLABETTAN\WORKBED\GAME\GAMESTATE.OBJ
C:\USERS\MANS.ZIVKOVICANDERS\DESKTOP\FPS\GAMLABETTAN\WORKBED\GAME\GAME.OBJ
C:\USERS\MANS.ZIVKOVICANDERS\DESKTOP\FPS\GAMLABETTAN\WORKBED\GAME\GBPHYSXSTATICCOMPONENT.OBJ
C:\USERS\MANS.ZIVKOVICANDERS\DESKTOP\FPS\GAMLABETTAN\WORKBED\GAME\GBPHYSXKINEMATICCOMPONENT.OBJ
C:\USERS\MANS.ZIVKOVICANDERS\DESKTOP\FPS\GAMLABETTAN\WORKBED\GAME\GBPHYSXCOMPONENT.OBJ
C:\USERS\MANS.ZIVKOVICANDERS\DESKTOP\FPS\GAMLABETTAN\WORKBED\GAME\GBPHYSXCOLLIDERFACTORY.OBJ
C:\USERS\MANS.ZIVKOVICANDERS\DESKTOP\FPS\GAMLABETTAN\WORKBED\GAME\FOLLOWCAMERA.OBJ
C:\USERS\MANS.ZIVKOVICANDERS\DESKTOP\FPS\GAMLABETTAN\WORKBED\GAME\FIREWEAPON.OBJ
C:\USERS\MANS.ZIVKOVICANDERS\DESKTOP\FPS\GAMLABETTAN\WORKBED\GAME\FPSCAMERA.OBJ
C:\USERS\MANS.ZIVKOVICANDERS\DESKTOP\FPS\GAMLABETTAN\WORKBED\GAME\ENTITY.OBJ
C:\USERS\MANS.ZIVKOVICANDERS\DESKTOP\FPS\GAMLABETTAN\WORKBED\GAME\PERLIN_NOISE.OBJ
C:\USERS\MANS.ZIVKOVICANDERS\DESKTOP\FPS\GAMLABETTAN\WORKBED\GAME\VIDEOSTATE.OBJ
C:\USERS\MANS.ZIVKOVICANDERS\DESKTOP\FPS\GAMLABETTAN\WORKBED\GAME\UIMANAGER.OBJ
C:\USERS\MANS.ZIVKOVICANDERS\DESKTOP\FPS\GAMLABETTAN\WORKBED\GAME\TRIGGERBOXFACTORY.OBJ
C:\USERS\MANS.ZIVKOVICANDERS\DESKTOP\FPS\GAMLABETTAN\WORKBED\GAME\STATICOBJECTFACTORY.OBJ
C:\USERS\MANS.ZIVKOVICANDERS\DESKTOP\FPS\GAMLABETTAN\WORKBED\GAME\SEEKTARGETSTATE.OBJ
C:\USERS\MANS.ZIVKOVICANDERS\DESKTOP\FPS\GAMLABETTAN\WORKBED\GAME\PROGRESSBAR.OBJ
C:\USERS\MANS.ZIVKOVICANDERS\DESKTOP\FPS\GAMLABETTAN\WORKBED\GAME\POINTLIGHTFACTORY.OBJ
C:\USERS\MANS.ZIVKOVICANDERS\DESKTOP\FPS\GAMLABETTAN\WORKBED\GAME\PLAYERCONTROLLER.OBJ
C:\USERS\MANS.ZIVKOVICANDERS\DESKTOP\FPS\GAMLABETTAN\WORKBED\GAME\PAUSESTATE.OBJ
C:\USERS\MANS.ZIVKOVICANDERS\DESKTOP\FPS\GAMLABETTAN\WORKBED\GAME\PARTICLESWHILEALIVE.OBJ
C:\USERS\MANS.ZIVKOVICANDERS\DESKTOP\FPS\GAMLABETTAN\WORKBED\GAME\PARTICLEONHIT.OBJ
C:\USERS\MANS.ZIVKOVICANDERS\DESKTOP\FPS\GAMLABETTAN\WORKBED\GAME\PARTICLEONDEATH.OBJ
C:\USERS\MANS.ZIVKOVICANDERS\DESKTOP\FPS\GAMLABETTAN\WORKBED\GAME\PARTICLEACTIVATABLE.OBJ
C:\USERS\MANS.ZIVKOVICANDERS\DESKTOP\FPS\GAMLABETTAN\WORKBED\GAME\OPTIONSTATE.OBJ
C:\USERS\MANS.ZIVKOVICANDERS\DESKTOP\FPS\GAMLABETTAN\WORKBED\GAME\MOVEMENT3D.OBJ
^C:\USERS\MANS.ZIVKOVICANDERS\DESKTOP\FPS\GAMLABETTAN\GAME\GAMEWORLD.CPP
C:\USERS\MANS.ZIVKOVICANDERS\DESKTOP\FPS\GAMLABETTAN\WORKBED\GAME\GAMEWORLD.OBJ
